<svg width="24" height="24" viewBox="0 0 24 24" fill="none" xmlns="http://www.w3.org/2000/svg">
<rect width="24" height="24" rx="4" fill="black"/>
<path d="M9.6 14.975L18.075 6.46249L19.2 7.58749L9.6 17.1875L5.1375 12.725L6.225 11.6L9.6 14.975Z" fill="white"/>
<rect x="0.5" y="0.5" width="23" height="23" rx="3.5" stroke="white"/>
</svg>
